[gd_scene load_steps=11 format=2]

[ext_resource path="res://Level/tileset.tres" type="TileSet" id=1]
[ext_resource path="res://Level/map.gd" type="Script" id=2]
[ext_resource path="res://player/player.tscn" type="PackedScene" id=3]
[ext_resource path="res://goal/goal.tscn" type="PackedScene" id=4]
[ext_resource path="res://UI/Memories.tscn" type="PackedScene" id=5]
[ext_resource path="res://InputList/InputList.tscn" type="PackedScene" id=6]
[ext_resource path="res://UI/UI.tscn" type="PackedScene" id=7]
[ext_resource path="res://font/FontHeader.tres" type="DynamicFont" id=8]
[ext_resource path="res://items/key/key_gold.tscn" type="PackedScene" id=9]
[ext_resource path="res://door/door.tscn" type="PackedScene" id=10]

[node name="Node2D" type="Node2D"]

[node name="TileMap" type="TileMap" parent="." index="0"]

mode = 0
tile_set = ExtResource( 1 )
cell_size = Vector2( 64, 64 )
cell_quadrant_size = 16
cell_custom_transform = Transform2D( 1, 0, 0, 1, 0, 0 )
cell_half_offset = 2
cell_tile_origin = 0
cell_y_sort = false
cell_clip_uv = false
collision_use_kinematic = false
collision_friction = 1.0
collision_bounce = 0.0
collision_layer = 1
collision_mask = 1
occluder_light_mask = 1
format = 1
tile_data = PoolIntArray( -1, 0, 8, -65536, 0, 10, -65535, 0, 10, -65534, 0, 10, -65533, 0, 10, -65532, 0, 10, -65531, 0, 10, -65530, 0, 10, -65529, 0, 10, -65528, 0, 10, -65527, 0, 10, -65526, 0, 10, -65525, 0, 10, -65524, 0, 10, -65523, 0, 10, -65522, 0, 10, -65521, 0, 10, -65520, 0, 11, 65535, 0, 65544, 0, 0, 131081, 1, 0, 131081, 2, 0, 131081, 3, 0, 131081, 4, 0, 131081, 5, 0, 131081, 6, 0, 131081, 7, 0, 131081, 8, 0, 131081, 9, 0, 131081, 10, 0, 131081, 11, 0, 131081, 12, 0, 131081, 13, 0, 131081, 14, 0, 131081, 15, 0, 131081, 16, 0, 131083, 131071, 0, 65544, 65536, 0, 131081, 65537, 0, 131081, 65538, 0, 131081, 65539, 0, 131081, 65540, 0, 131081, 65541, 0, 131081, 65542, 0, 131081, 65543, 0, 131081, 65544, 0, 131081, 65545, 0, 131081, 65546, 0, 131081, 65547, 0, 131081, 65548, 0, 131081, 65549, 0, 131081, 65550, 0, 131081, 65551, 0, 131081, 65552, 0, 131083, 196607, 0, 65544, 131072, 0, 131081, 131073, 0, 131081, 131074, 0, 131081, 131075, 0, 131081, 131076, 0, 131081, 131077, 0, 131081, 131078, 0, 131081, 131079, 0, 131081, 131080, 0, 131081, 131081, 0, 131081, 131082, 0, 131081, 131083, 0, 131081, 131084, 0, 131081, 131085, 0, 131081, 131086, 0, 131081, 131087, 0, 131081, 131088, 0, 131083, 262143, 0, 65544, 196608, 0, 131081, 196609, 0, 131081, 196610, 0, 131081, 196611, 0, 131081, 196612, 0, 131081, 196613, 0, 131081, 196614, 0, 131081, 196615, 0, 131081, 196616, 0, 131081, 196617, 0, 131081, 196618, 0, 131081, 196619, 0, 131081, 196620, 0, 131081, 196621, 0, 131081, 196622, 0, 131081, 196623, 0, 131081, 196624, 0, 131083, 327679, 0, 65544, 262144, 0, 131078, 262145, 0, 196617, 262146, 0, 196617, 262147, 0, 196617, 262148, 0, 196617, 262149, 0, 196617, 262150, 0, 196617, 262151, 0, 196617, 262152, 0, 196617, 262153, 0, 196617, 262154, 0, 196617, 262155, 0, 196617, 262156, 0, 196617, 262157, 0, 196617, 262158, 0, 131077, 262159, 0, 131081, 262160, 0, 131083, 393215, 0, 65544, 327680, 0, 131083, 327694, 0, 65544, 327695, 0, 131081, 327696, 0, 131083, 458751, 0, 65544, 393216, 0, 65542, 393217, 0, 10, 393218, 0, 10, 393219, 0, 10, 393220, 0, 10, 393221, 0, 10, 393222, 0, 10, 393223, 0, 10, 393224, 0, 10, 393225, 0, 10, 393226, 0, 10, 393227, 0, 10, 393228, 0, 10, 393229, 0, 10, 393230, 0, 65541, 393231, 0, 131081, 393232, 0, 131083, 524287, 0, 65544, 458752, 0, 131081, 458753, 0, 131081, 458754, 0, 131081, 458755, 0, 131081, 458756, 0, 131081, 458757, 0, 131081, 458758, 0, 131081, 458759, 0, 131081, 458760, 0, 131081, 458761, 0, 131081, 458762, 0, 131081, 458763, 0, 131081, 458764, 0, 131081, 458765, 0, 131081, 458766, 0, 131081, 458767, 0, 131081, 458768, 0, 131083, 589823, 0, 65544, 524288, 0, 131081, 524289, 0, 131081, 524290, 0, 131081, 524291, 0, 131081, 524292, 0, 131081, 524293, 0, 131081, 524294, 0, 131081, 524295, 0, 131081, 524296, 0, 131081, 524297, 0, 131081, 524298, 0, 131081, 524299, 0, 131081, 524300, 0, 131081, 524301, 0, 131081, 524302, 0, 131081, 524303, 0, 131081, 524304, 0, 131083, 655359, 0, 196616, 589824, 0, 196617, 589825, 0, 196617, 589826, 0, 196617, 589827, 0, 196617, 589828, 0, 196617, 589829, 0, 196617, 589830, 0, 196617, 589831, 0, 196617, 589832, 0, 196617, 589833, 0, 196617, 589834, 0, 196617, 589835, 0, 196617, 589836, 0, 196617, 589837, 0, 196617, 589838, 0, 196617, 589839, 0, 196617, 589840, 0, 196619 )
script = ExtResource( 2 )
__meta__ = {
"_edit_lock_": true
}

[node name="player" parent="." index="1" instance=ExtResource( 3 )]

position = Vector2( 64, 320 )

[node name="goal" parent="." index="2" instance=ExtResource( 4 )]

position = Vector2( 832, 320 )

[node name="Memories" parent="." index="3" instance=ExtResource( 5 )]

[node name="InputList2" parent="Memories" index="0" instance=ExtResource( 6 )]

[node name="UI" parent="." index="4" instance=ExtResource( 7 )]

[node name="Label" type="Label" parent="UI" index="1"]

anchor_left = 0.0
anchor_top = 0.0
anchor_right = 0.0
anchor_bottom = 0.0
margin_left = 396.0
margin_top = 404.0
margin_right = 799.0
margin_bottom = 468.0
rect_pivot_offset = Vector2( 0, 0 )
rect_clip_content = false
mouse_filter = 2
mouse_default_cursor_shape = 0
size_flags_horizontal = 1
size_flags_vertical = 4
custom_fonts/font = ExtResource( 8 )
text = "You need a key to open a door"
percent_visible = 1.0
lines_skipped = 0
max_lines_visible = -1
_sections_unfolded = [ "custom_fonts" ]

[node name="key_gold" parent="." index="5" instance=ExtResource( 9 )]

modulate = Color( 1, 1, 0, 1 )
position = Vector2( 448, 320 )

[node name="door" parent="." index="6" instance=ExtResource( 10 )]

position = Vector2( 704, 320 )


