[gd_scene load_steps=8 format=2]

[ext_resource path="res://goal/goal.tscn" type="PackedScene" id=1]
[ext_resource path="res://player/player.tscn" type="PackedScene" id=2]
[ext_resource path="res://Level/tileset.tres" type="TileSet" id=3]
[ext_resource path="res://Level/map.gd" type="Script" id=4]
[ext_resource path="res://UI/Memories.tscn" type="PackedScene" id=5]
[ext_resource path="res://InputList/InputList.tscn" type="PackedScene" id=6]
[ext_resource path="res://UI/UI.tscn" type="PackedScene" id=7]

[node name="Node2D" type="Node2D"]

[node name="goal" parent="." index="0" instance=ExtResource( 1 )]

position = Vector2( 192, 192 )

[node name="player" parent="." index="1" instance=ExtResource( 2 )]

position = Vector2( 64, 512 )

[node name="TileMap" type="TileMap" parent="." index="2"]

mode = 0
tile_set = ExtResource( 3 )
cell_size = Vector2( 64, 64 )
cell_quadrant_size = 16
cell_custom_transform = Transform2D( 1, 0, 0, 1, 0, 0 )
cell_half_offset = 2
cell_tile_origin = 0
cell_y_sort = false
cell_clip_uv = false
collision_use_kinematic = false
collision_friction = 1.0
collision_bounce = 0.0
collision_layer = 1
collision_mask = 1
occluder_light_mask = 1
format = 1
tile_data = PoolIntArray( -1, 0, 8, -65536, 0, 10, -65535, 0, 10, -65534, 0, 10, -65533, 0, 10, -65532, 0, 10, -65531, 0, 10, -65530, 0, 10, -65529, 0, 10, -65528, 0, 10, -65527, 0, 10, -65526, 0, 10, -65525, 0, 10, -65524, 0, 10, -65523, 0, 10, -65522, 0, 10, -65521, 0, 10, -65520, 0, 11, 65535, 0, 65544, 0, 0, 131078, 1, 0, 196617, 2, 0, 196617, 3, 0, 196617, 4, 0, 131077, 5, 0, 131081, 6, 0, 131081, 7, 0, 131081, 8, 0, 131081, 9, 0, 131081, 10, 0, 131081, 11, 0, 131081, 12, 0, 131081, 13, 0, 131081, 14, 0, 131081, 15, 0, 131081, 16, 0, 131083, 131071, 0, 65544, 65536, 0, 131083, 65540, 0, 65544, 65541, 0, 131081, 65542, 0, 131081, 65543, 0, 131081, 65544, 0, 131081, 65545, 0, 131081, 65546, 0, 131081, 65547, 0, 131081, 65548, 0, 131081, 65549, 0, 131081, 65550, 0, 131081, 65551, 0, 131081, 65552, 0, 131083, 196607, 0, 65544, 131072, 0, 131083, 131074, 0, 0, 131076, 0, 65544, 131077, 0, 131081, 131078, 0, 131081, 131079, 0, 131081, 131080, 0, 131081, 131081, 0, 131081, 131082, 0, 131081, 131083, 0, 131081, 131084, 0, 131078, 131085, 0, 196617, 131086, 0, 196617, 131087, 0, 196617, 131088, 0, 131079, 262143, 0, 65544, 196608, 0, 131083, 196610, 0, 65536, 196612, 0, 65544, 196613, 0, 131081, 196614, 0, 131081, 196615, 0, 131081, 196616, 0, 131081, 196617, 0, 131081, 196618, 0, 131081, 196619, 0, 131081, 196620, 0, 131083, 196624, 0, 65536, 327679, 0, 65544, 262144, 0, 131083, 262146, 0, 131073, 262147, 0, 196610, 262148, 0, 196613, 262149, 0, 196617, 262150, 0, 196617, 262151, 0, 196617, 262152, 0, 196617, 262153, 0, 196617, 262154, 0, 196617, 262155, 0, 196617, 262156, 0, 196619, 262158, 0, 0, 262160, 0, 65536, 393215, 0, 65544, 327680, 0, 131083, 327694, 0, 131072, 327696, 0, 65536, 458751, 0, 65544, 393216, 0, 65542, 393217, 0, 10, 393218, 0, 6, 393219, 0, 196610, 393220, 0, 196610, 393221, 0, 196610, 393222, 0, 2, 393223, 0, 196610, 393224, 0, 196610, 393225, 0, 196610, 393226, 0, 5, 393227, 0, 10, 393228, 0, 6, 393229, 0, 196611, 393232, 0, 65536, 524287, 0, 65544, 458752, 0, 131078, 458753, 0, 196617, 458754, 0, 196619, 458758, 0, 131072, 458762, 0, 196616, 458763, 0, 196617, 458764, 0, 196619, 458767, 0, 8, 458768, 0, 65543, 589823, 0, 65544, 524288, 0, 131083, 524292, 0, 0, 524296, 0, 0, 524302, 0, 8, 524303, 0, 65541, 524304, 0, 131083, 655359, 0, 196616, 589824, 0, 196614, 589825, 0, 196610, 589826, 0, 196610, 589827, 0, 196610, 589828, 0, 131074, 589829, 0, 196610, 589830, 0, 196610, 589831, 0, 196610, 589832, 0, 131074, 589833, 0, 196610, 589834, 0, 196610, 589835, 0, 196610, 589836, 0, 196610, 589837, 0, 196610, 589838, 0, 196613, 589839, 0, 196617, 589840, 0, 196619 )
script = ExtResource( 4 )
__meta__ = {
"_edit_lock_": true
}

[node name="Memories" parent="." index="3" instance=ExtResource( 5 )]

[node name="InputList2" parent="Memories" index="0" instance=ExtResource( 6 )]

margin_left = 380.0
margin_top = 38.0
margin_right = 539.0
margin_bottom = 285.0

[node name="InputList" parent="Memories" index="1" instance=ExtResource( 6 )]

margin_left = 555.0
margin_top = 39.0
margin_right = 714.0
margin_bottom = 286.0

[node name="UI" parent="." index="4" instance=ExtResource( 7 )]


