[gd_scene load_steps=5 format=2]

[ext_resource path="res://items/item.tscn" type="PackedScene" id=1]
[ext_resource path="res://items/key/key.gd" type="Script" id=2]
[ext_resource path="res://items/key/key_gray.png" type="Texture" id=3]
[ext_resource path="res://items/key/key_rotate.tres" type="Animation" id=4]

[node name="key_silver" instance=ExtResource( 1 )]

modulate = Color( 0.863281, 1, 0.993591, 1 )
script = ExtResource( 2 )
_sections_unfolded = [ "Visibility" ]
color = "silver"

[node name="Sprite" parent="." index="0"]

scale = Vector2( 0.193684, 1 )
texture = ExtResource( 3 )
_sections_unfolded = [ "Visibility" ]

[node name="AnimationPlayer" type="AnimationPlayer" parent="." index="1"]

root_node = NodePath("..")
autoplay = ""
playback_process_mode = 1
playback_default_blend_time = 0.0
playback_speed = 1.0
anims/key_rotate = ExtResource( 4 )
blend_times = [  ]


